\relax 
\providecommand\hyper@newdestlabel[2]{}
\providecommand*{\memsetcounter}[2]{}
\providecommand\HyperFirstAtBeginDocument{\AtBeginDocument}
\HyperFirstAtBeginDocument{\ifx\hyper@anchor\@undefined
\global\let\oldcontentsline\contentsline
\gdef\contentsline#1#2#3#4{\oldcontentsline{#1}{#2}{#3}}
\global\let\oldnewlabel\newlabel
\gdef\newlabel#1#2{\newlabelxx{#1}#2}
\gdef\newlabelxx#1#2#3#4#5#6{\oldnewlabel{#1}{{#2}{#3}}}
\AtEndDocument{\ifx\hyper@anchor\@undefined
\let\contentsline\oldcontentsline
\let\newlabel\oldnewlabel
\fi}
\fi}
\global\let\hyper@last\relax 
\gdef\HyperFirstAtBeginDocument#1{#1}
\providecommand\HyField@AuxAddToFields[1]{}
\providecommand\HyField@AuxAddToCoFields[2]{}
\@writefile{toc}{\contentsline {section}{\numberline {0.1}Introduction to hardware}{1}{section.0.1}}
\@writefile{toc}{\contentsline {subsection}{Physics 101}{1}{section*.1}}
\@writefile{toc}{\contentsline {subsection}{Soldering}{2}{section*.2}}
\@writefile{toc}{\contentsline {subsection}{Programming}{2}{section*.3}}
\@writefile{toc}{\contentsline {subsubsection}{Variables, declaration and assignations}{3}{section*.4}}
\newlabel{declaration}{{\M@TitleReference {0.1}{Variables, declaration and assignations}}{3}{}{lstlisting.0.-1}{}}
\@writefile{toc}{\contentsline {subsubsection}{Functions, Parameters and Return Value}{4}{section*.5}}
\newlabel{function_Skeleton}{{\M@TitleReference {0.1}{Functions, Parameters and Return Value}}{4}{}{lstlisting.0.-2}{}}
\newlabel{simple_function}{{\M@TitleReference {0.1}{Functions, Parameters and Return Value}}{4}{}{lstlisting.0.-3}{}}
\newlabel{addition_function}{{\M@TitleReference {0.1}{Functions, Parameters and Return Value}}{4}{}{lstlisting.0.-4}{}}
\newlabel{void_function}{{\M@TitleReference {0.1}{Functions, Parameters and Return Value}}{4}{}{lstlisting.0.-5}{}}
\@writefile{toc}{\contentsline {subsubsection}{Control flow}{5}{section*.6}}
\newlabel{for_loop}{{\M@TitleReference {0.1}{Control flow}}{5}{}{lstlisting.0.-8}{}}
\newlabel{while_loop}{{\M@TitleReference {0.1}{Control flow}}{6}{}{lstlisting.0.-9}{}}
\@writefile{toc}{\contentsline {subsection}{tools}{6}{section*.7}}
\@writefile{toc}{\contentsline {subsubsection}{Atom text editor and PlatformIO IDE}{6}{section*.8}}
\@writefile{toc}{\contentsline {subsubsection}{Breadboard}{7}{section*.11}}
\@writefile{lof}{\contentsline {figure}{\numberline {0.1}{\ignorespaces A breadboard\relax }}{7}{figure.caption.12}}
\providecommand*\caption@xref[2]{\@setref\relax\@undefined{#1}}
\newlabel{fig:breadboard}{{\M@TitleReference {0.1}{A breadboard\relax }}{7}{A breadboard\relax }{figure.caption.12}{}}
\@writefile{lof}{\contentsline {figure}{\numberline {0.2}{\ignorespaces A breadboard division\relax }}{8}{figure.caption.13}}
\newlabel{fig:breadboard_div}{{\M@TitleReference {0.2}{A breadboard division\relax }}{8}{A breadboard division\relax }{figure.caption.13}{}}
\@writefile{lof}{\contentsline {figure}{\numberline {0.3}{\ignorespaces A blank breadboard connection\relax }}{8}{figure.caption.14}}
\newlabel{fig:breadboard_blank}{{\M@TitleReference {0.3}{A blank breadboard connection\relax }}{8}{A blank breadboard connection\relax }{figure.caption.14}{}}
\@writefile{toc}{\contentsline {subsubsection}{Arduino Mano}{9}{section*.15}}
\@writefile{lof}{\contentsline {figure}{\numberline {0.4}{\ignorespaces Arduino's connection schematic\relax }}{9}{figure.caption.16}}
\newlabel{fig:onboard_pinout}{{\M@TitleReference {0.4}{Arduino's connection schematic\relax }}{9}{Arduino's connection schematic\relax }{figure.caption.16}{}}
\@writefile{toc}{\contentsline {subsubsection}{Raspberry pi}{10}{section*.17}}
\@writefile{lof}{\contentsline {figure}{\numberline {0.5}{\ignorespaces Pi's connection schematic\relax }}{10}{figure.caption.18}}
\newlabel{fig:rasp_pinout}{{\M@TitleReference {0.5}{Pi's connection schematic\relax }}{10}{Pi's connection schematic\relax }{figure.caption.18}{}}
\@writefile{toc}{\contentsline {subsubsection}{Resistor}{11}{section*.19}}
\@writefile{toc}{\contentsline {subsubsection}{LED}{11}{section*.21}}
\newlabel{fig:2pinled}{{\M@TitleReference {0.6a}{2 pins led\relax }}{12}{2 pins led\relax }{figure.caption.22}{}}
\newlabel{sub@fig:2pinled}{{\M@TitleReference {a}{2 pins led\relax }}{12}{2 pins led\relax }{figure.caption.22}{}}
\newlabel{fig:4pinled}{{\M@TitleReference {0.6b}{4 pin led\relax }}{12}{4 pin led\relax }{figure.caption.22}{}}
\newlabel{sub@fig:4pinled}{{\M@TitleReference {b}{4 pin led\relax }}{12}{4 pin led\relax }{figure.caption.22}{}}
\@writefile{toc}{\contentsline {subsubsection}{Sensors}{12}{section*.23}}
\@writefile{toc}{\contentsline {subsection}{Resources}{12}{section*.24}}
\@writefile{toc}{\contentsline {section}{\numberline {0.2}Arduino}{12}{section.0.2}}
\@writefile{toc}{\contentsline {subsection}{Arduino specificities}{13}{section*.25}}
\@writefile{toc}{\contentsline {subsection}{Exercise 1: Look Ma, no connections}{13}{section*.26}}
\@writefile{lof}{\contentsline {figure}{\numberline {0.7}{\ignorespaces Arduino's on-board led\relax }}{14}{figure.caption.27}}
\newlabel{fig:onboard_led}{{\M@TitleReference {0.7}{Arduino's on-board led\relax }}{14}{Arduino's on-board led\relax }{figure.caption.27}{}}
\newlabel{fig:select01}{{\M@TitleReference {\caption@xref {fig:select01}{ on input line 319}}{Exercise 1: Look Ma, no connections}}{14}{Exercise 1: Look Ma, no connections}{figure.caption.28}{}}
\newlabel{fig:buildnupload}{{\M@TitleReference {\caption@xref {fig:buildnupload}{ on input line 343}}{Exercise 1: Look Ma, no connections}}{16}{Exercise 1: Look Ma, no connections}{figure.caption.29}{}}
\@writefile{toc}{\contentsline {subsection}{Exercise 2: Let there be light}{17}{section*.30}}
\newlabel{fig:ledconection}{{\M@TitleReference {\caption@xref {fig:ledconection}{ on input line 366}}{Exercise 2: Let there be light}}{17}{Exercise 2: Let there be light}{figure.caption.31}{}}
\@writefile{toc}{\contentsline {subsection}{Exercise 3: Reading Input}{18}{section*.32}}
\newlabel{fig:switchconection}{{\M@TitleReference {\caption@xref {fig:switchconection}{ on input line 378}}{Exercise 3: Reading Input}}{18}{Exercise 3: Reading Input}{figure.caption.33}{}}
\@writefile{toc}{\contentsline {subsection}{Exercise 4: Analogue vs Digital}{19}{section*.34}}
\newlabel{fig:potentiometer}{{\M@TitleReference {\caption@xref {fig:potentiometer}{ on input line 415}}{Exercise 4: Analogue vs Digital}}{19}{Exercise 4: Analogue vs Digital}{figure.caption.35}{}}
\newlabel{fig:potentiometerconnection}{{\M@TitleReference {\caption@xref {fig:potentiometerconnection}{ on input line 420}}{Exercise 4: Analogue vs Digital}}{20}{Exercise 4: Analogue vs Digital}{figure.caption.36}{}}
\@writefile{toc}{\contentsline {subsection}{Exercise 5: Let There Be Noise}{21}{section*.37}}
\newlabel{fig:speaker}{{\M@TitleReference {\caption@xref {fig:speaker}{ on input line 464}}{Exercise 5: Let There Be Noise}}{21}{Exercise 5: Let There Be Noise}{figure.caption.38}{}}
\newlabel{fig:speakerconnection}{{\M@TitleReference {\caption@xref {fig:speakerconnection}{ on input line 469}}{Exercise 5: Let There Be Noise}}{22}{Exercise 5: Let There Be Noise}{figure.caption.39}{}}
\@writefile{toc}{\contentsline {subsection}{Exercise 6: Turn that sh** up to 11}{23}{section*.40}}
\@writefile{toc}{\contentsline {subsection}{Exercise 7: Let's sense the world}{23}{section*.41}}
\newlabel{fig:lightsensor}{{\M@TitleReference {0.8a}{A photo resistor\relax }}{23}{A photo resistor\relax }{figure.caption.42}{}}
\newlabel{sub@fig:lightsensor}{{\M@TitleReference {a}{A photo resistor\relax }}{23}{A photo resistor\relax }{figure.caption.42}{}}
\newlabel{fig:tempsensor}{{\M@TitleReference {0.8b}{A temperature sensor\relax }}{23}{A temperature sensor\relax }{figure.caption.42}{}}
\newlabel{sub@fig:tempsensor}{{\M@TitleReference {b}{A temperature sensor\relax }}{23}{A temperature sensor\relax }{figure.caption.42}{}}
\newlabel{fig:meteoconnection}{{\M@TitleReference {\caption@xref {fig:meteoconnection}{ on input line 530}}{Exercise 7: Let's sense the world}}{24}{Exercise 7: Let's sense the world}{figure.caption.43}{}}
\@writefile{toc}{\contentsline {subsection}{Exercise 8: Good night Sweet Princes and Princesses}{26}{section*.44}}
\@writefile{toc}{\contentsline {subsection}{Exercise 9: The thousand miles journey begin with a single step}{26}{section*.45}}
\@writefile{toc}{\contentsline {section}{\numberline {0.3}Raspberry Pi}{26}{section.0.3}}
\@writefile{toc}{\contentsline {subsection}{Project 1: Automated garden}{26}{section*.46}}
\@writefile{toc}{\contentsline {subsubsection}{Arduino}{26}{section*.47}}
\newlabel{fig:gardenconnection}{{\M@TitleReference {\caption@xref {fig:gardenconnection}{ on input line 638}}{Arduino}}{27}{Arduino}{figure.caption.48}{}}
\@writefile{toc}{\contentsline {subsubsection}{RPi}{28}{section*.49}}
\@writefile{toc}{\contentsline {subsubsection}{Connecting both}{29}{section*.50}}
\memsetcounter{lastsheet}{29}
\memsetcounter{lastpage}{29}
